threshold = 0.10 n =  2 accuracy =  1.08021 
threshold = 0.10 n =  4 accuracy =  0.97550 
threshold = 0.10 n =  6 accuracy =  0.98650 
threshold = 0.10 n =  8 accuracy =  0.99200 
threshold = 0.10 n = 10 accuracy =  0.98750 
threshold = 0.15 n =  2 accuracy =  1.60424 
threshold = 0.15 n =  4 accuracy =  0.89945 
threshold = 0.15 n =  6 accuracy =  0.61624 
threshold = 0.15 n =  8 accuracy =  0.53700 
threshold = 0.15 n = 10 accuracy =  0.55250 
threshold = 0.20 n =  2 accuracy =  0.01923 
threshold = 0.20 n =  4 accuracy =  0.01923 
threshold = 0.20 n =  6 accuracy =  0.01923 
threshold = 0.20 n =  8 accuracy =  0.00641 
threshold = 0.20 n = 10 accuracy =  0.01282 
threshold = 0.25 n =  2 accuracy =  0.00000 
threshold = 0.25 n =  4 accuracy =  0.06667 
threshold = 0.25 n =  6 accuracy =  0.00000 
threshold = 0.25 n =  8 accuracy =  0.06667 
threshold = 0.25 n = 10 accuracy =  0.06667 
threshold = 0.30 n =  2 accuracy =  0.00000 
threshold = 0.30 n =  4 accuracy =  0.00000 
threshold = 0.30 n =  6 accuracy =  0.00000 
threshold = 0.30 n =  8 accuracy =  0.00000 
threshold = 0.30 n = 10 accuracy =  0.00000 
