threshold = 0.10 n =  2 accuracy =  1.23970 
threshold = 0.10 n =  4 accuracy =  0.98950 
threshold = 0.10 n =  6 accuracy =  0.99325 
threshold = 0.10 n =  8 accuracy =  0.99700 
threshold = 0.10 n = 10 accuracy =  0.99875 
threshold = 0.15 n =  2 accuracy =  5.92693 
threshold = 0.15 n =  4 accuracy =  3.45720 
threshold = 0.15 n =  6 accuracy =  2.36952 
threshold = 0.15 n =  8 accuracy =  1.83507 
threshold = 0.15 n = 10 accuracy =  1.49269 
threshold = 0.20 n =  2 accuracy = 22.76923 
threshold = 0.20 n =  4 accuracy = 17.07692 
threshold = 0.20 n =  6 accuracy = 11.07692 
threshold = 0.20 n =  8 accuracy =  8.61538 
threshold = 0.20 n = 10 accuracy =  8.00000 
threshold = 0.25 n =  2 accuracy =  1.00000 
threshold = 0.25 n =  4 accuracy =  1.00000 
threshold = 0.25 n =  6 accuracy =  1.00000 
threshold = 0.25 n =  8 accuracy =  0.00000 
threshold = 0.25 n = 10 accuracy =  1.00000 
threshold = 0.30 n =  2 accuracy =  0.00000 
threshold = 0.30 n =  4 accuracy =  0.00000 
threshold = 0.30 n =  6 accuracy =  0.00000 
threshold = 0.30 n =  8 accuracy =  0.00000 
threshold = 0.30 n = 10 accuracy =  0.00000 
